personalprojects - Introduction
…
The unnest_token() arguments are column names: i.e. output column name: word, input column that the text comes from: text.

2.2 Example: tidying the works of Jane Austen

2.2.1 Data wrangling

The text of Jane Austen’s 6 completed, published novels from the janeaustenr package (Silge 2016) was used.

library(janeaustenr)
library(dplyr)
library(stringr)

austen_books()

# A tibble: 73,422 × 2
   text                    book               
 * <chr>                   <fct>              
 1 "SENSE AND SENSIBILITY" Sense & Sensibility
 2 ""                      Sense & Sensibility
 3 "by Jane Austen"        Sense & Sensibility
 4 ""                      Sense & Sensibility
 5 "(1811)"                Sense & Sensibility
 6 ""                      Sense & Sensibility
 7 ""                      Sense & Sensibility
 8 ""                      Sense & Sensibility
 9 ""                      Sense & Sensibility
10 "CHAPTER 1"             Sense & Sensibility
# … with 73,412 more rows

Using mutate(), we annotate a linenumber quantity to keep track of lines in the original format, and a chapter.

original_books <- austen_books() |> 
  group_by(book) |> 
  mutate(linenumber = row_number(),
         chapter = cumsum(str_detect(text, 
                                     regex("^chapter [\\divxlc]",
                                           ignore_case = TRUE)))) %>%
  ungroup()

original_books

# A tibble: 73,422 × 4
   text                    book                linenumber chapter
   <chr>                   <fct>                    <int>   <int>
 1 "SENSE AND SENSIBILITY" Sense & Sensibility          1       0
 2 ""                      Sense & Sensibility          2       0
 3 "by Jane Austen"        Sense & Sensibility          3       0
 4 ""                      Sense & Sensibility          4       0
 5 "(1811)"                Sense & Sensibility          5       0
 6 ""                      Sense & Sensibility          6       0
 7 ""                      Sense & Sensibility          7       0
 8 ""                      Sense & Sensibility          8       0
 9 ""                      Sense & Sensibility          9       0
10 "CHAPTER 1"             Sense & Sensibility         10       1
# … with 73,412 more rows

To create a tidy dataset, we restructure it in the one-token-per-row format, using the unnest_tokens() function

library(tidytext)
tidy_books<-original_books |> 
  unnest_tokens(word, text)

tidy_books

# A tibble: 725,055 × 4
   book                linenumber chapter word       
   <fct>                    <int>   <int> <chr>      
 1 Sense & Sensibility          1       0 sense      
 2 Sense & Sensibility          1       0 and        
 3 Sense & Sensibility          1       0 sensibility
 4 Sense & Sensibility          3       0 by         
 5 Sense & Sensibility          3       0 jane       
 6 Sense & Sensibility          3       0 austen     
 7 Sense & Sensibility          5       0 1811       
 8 Sense & Sensibility         10       1 chapter    
 9 Sense & Sensibility         10       1 1          
10 Sense & Sensibility         13       1 the        
# … with 725,045 more rows

Often in analysis, we want to remove stop words, which are words not useful in analysis. We can do so using anti_join()

tidy_books<-tidy_books |> 
  anti_join(stop_words)

tidy_books

# A tibble: 217,609 × 4
   book                linenumber chapter word       
   <fct>                    <int>   <int> <chr>      
 1 Sense & Sensibility          1       0 sense      
 2 Sense & Sensibility          1       0 sensibility
 3 Sense & Sensibility          3       0 jane       
 4 Sense & Sensibility          3       0 austen     
 5 Sense & Sensibility          5       0 1811       
 6 Sense & Sensibility         10       1 chapter    
 7 Sense & Sensibility         10       1 1          
 8 Sense & Sensibility         13       1 family     
 9 Sense & Sensibility         13       1 dashwood   
10 Sense & Sensibility         13       1 settled    
# … with 217,599 more rows

We see that after this code chunk, the number of rows reduced significantly (725k to 217k rows).

2.2.2 Data analysis

We can use dplyr’s count() to find the most common words in all the books as a whole

tidy_books |> 
  count(word, sort=TRUE)

# A tibble: 13,914 × 2
   word       n
   <chr>  <int>
 1 miss    1855
 2 time    1337
 3 fanny    862
 4 dear     822
 5 lady     817
 6 sir      806
 7 day      797
 8 emma     787
 9 sister   727
10 house    699
# … with 13,904 more rows
…
