personalprojects - Take-home Exercise 3: Predicting HDB Public Housing Resale Pricies using Geographically Weighted Methods
…
Code

library(sf)
library(onemapsgapi)

token <- "your value"
search_themes(token, "searchval")
get_theme_status(token, "themename")
themetibble <- get_theme(token, "themename")
themesf <- st_as_sf(themetibble, coords=c("Lng", "Lat"), crs=4326)

This token will expire on 2023-08-21 15:20:52

# A tibble: 477 × 7
   THEMENAME                       QUERY…¹ ICON  CATEG…² THEME…³ EXPIR…⁴ PUBLI…⁵
   <chr>                           <chr>   <chr> <chr>   <chr>   <named> <named>
 1 MCE KPE Speed Camera            mce_kp… icon… Commun… LAND T… <chr>   <chr>  
 2 MCE KPE Speed Camera            mce_kp… icon… Commun… LAND T… <int>   <int>  
 3 MCE KPE Speed Camera            mce_kp… icon… Commun… LAND T… <chr>   <chr>  
 4 Singapore Police Force Mobile … spf_msc Spee… Commun… SINGAP… <chr>   <chr>  
 5 Singapore Police Force Mobile … spf_msc Spee… Commun… SINGAP… <int>   <int>  
 6 Singapore Police Force Mobile … spf_msc Spee… Commun… SINGAP… <chr>   <chr>  
 7 Liquor Control Zone(s) proclai… liquor… Cres… Commun… SINGAP… <chr>   <chr>  
 8 Liquor Control Zone(s) proclai… liquor… Cres… Commun… SINGAP… <int>   <int>  
 9 Liquor Control Zone(s) proclai… liquor… Cres… Commun… SINGAP… <chr>   <chr>  
10 Singapore Police Force - 32nd … as_ist… Cres… Commun… SINGAP… <chr>   <chr>  
# … with 467 more rows, and abbreviated variable names ¹​QUERYNAME, ²​CATEGORY,
#   ³​THEME_OWNER, ⁴​EXPIRY_DATE, ⁵​PUBLISHED_DATE
…
