personalprojects - Take-home Exercise 2
…
for (i in n5) {   geoJAR$subdistrict[i] <- "KALI DERES"}

setdiff(geoJAR$subdistrict, df$subdistrict)

[1] NA

2.1.2.6 Selecting columns

To keep our data organised, we retain only specific columns of our data.

df |> 
  select(date, village_code, subdistrict, vaccination_rate)

# A tibble: 3,132 × 4
   date       village_code subdistrict      vaccination_rate
   <date>     <chr>        <chr>                       <dbl>
 1 2021-07-01 3172051003   PADEMANGAN                  0.349
 2 2021-07-01 3173041007   TAMBORA                     0.361
 3 2021-07-01 3175041005   KRAMAT JATI                 0.251
 4 2021-07-01 3175031003   JATINEGARA                  0.339
 5 2021-07-01 3175101006   CIPAYUNG                    0.323
 6 2021-07-01 3174031002   MAMPANG PRAPATAN            0.340
 7 2021-07-01 3175051002   PASAR REBO                  0.444
 8 2021-07-01 3175041004   KRAMAT JATI                 0.267
 9 2021-07-01 3171071002   TANAH ABANG                 0.395
10 2021-07-01 3175031002   JATINEGARA                  0.276
# … with 3,122 more rows
…
date = c("2021-07-01", "2021-08-01", "2021-09-01", "2021-10-01", "2021-11-01", "2021-12-01", "2022-01-01", "2022-02-01", "2022-03-01", "2022-04-01", "2022-05-01", "2022-06-01")

lisa_LMI <- list() 

for (i in 1:12){   lisa_LMI[[i]] <- lisa(date[i]) }

lisa_LMI

[[1]]
Simple feature collection with 261 features and 19 fields
Geometry type: MULTIPOLYGON
Dimension:     XY
Bounding box:  xmin: -3644275 ymin: 663887.8 xmax: -3606237 ymax: 701380.1
Projected CRS: DGN95 / Indonesia TM-3 zone 54.1
# A tibble: 261 × 20
   gi_star    e_gi    var_gi p_value p_sim p_fol…¹ skewn…² kurto…³ date  villa…⁴
     <dbl>   <dbl>     <dbl>   <dbl> <dbl>   <dbl>   <dbl>   <dbl> <fct> <chr>  
 1  1.62   0.00387   4.65e-8 0.105    0.16    0.08  0.260  -0.0736 2021… 317205…
 2 -1.02   0.00379   8.27e-8 0.309    0.32    0.16  0.125  -0.0562 2021… 317304…
 3 -2.50   0.00387   8.31e-8 0.0123   0.02    0.01  0.0813 -0.697  2021… 317504…
 4 -2.43   0.00384   5.00e-8 0.0149   0.02    0.01  0.295  -0.309  2021… 317503…
 5 -0.787  0.00380   8.83e-8 0.432    0.4     0.2   0.442   1.27   2021… 317510…
 6  0.644  0.00382   4.24e-8 0.519    0.56    0.28 -0.0507 -0.722  2021… 317403…
 7 -0.0979 0.00381   8.78e-8 0.922    0.94    0.47  0.199   1.13   2021… 317505…
 8 -2.62   0.00386   7.12e-8 0.00882  0.04    0.02 -0.0590  0.831  2021… 317504…
 9 -0.437  0.00381   6.13e-8 0.662    0.78    0.39  0.193  -0.715  2021… 317107…
10 -2.51   0.00383   5.13e-8 0.0122   0.02    0.01  0.129   0.374  2021… 317503…
# … with 251 more rows, 10 more variables: city_region <chr>,
#   subdistrict <chr>, district <chr>, not_vaccinated <dbl>,
#   target_vaccination <dbl>, total_population <dbl>, vaccination_rate <dbl>,
#   geometry <MULTIPOLYGON [m]>, nb <nb>, wt <list>, and abbreviated variable
#   names ¹​p_folded_sim, ²​skewness, ³​kurtosis, ⁴​village_code

[[2]]
Simple feature collection with 261 features and 19 fields
Geometry type: MULTIPOLYGON
Dimension:     XY
Bounding box:  xmin: -3644275 ymin: 663887.8 xmax: -3606237 ymax: 701380.1
Projected CRS: DGN95 / Indonesia TM-3 zone 54.1
# A tibble: 261 × 20
   gi_star    e_gi    var_gi p_value p_sim p_fol…¹ skewn…² kurto…³ date  villa…⁴
     <dbl>   <dbl>     <dbl>   <dbl> <dbl>   <dbl>   <dbl>   <dbl> <fct> <chr>  
 1   2.04  0.00386   1.45e-8 4.16e-2  0.08    0.04  0.115  -0.0295 2021… 317205…
 2  -0.891 0.00380   3.26e-8 3.73e-1  0.48    0.24 -0.0201 -0.476  2021… 317304…
 3  -3.84  0.00386   2.58e-8 1.22e-4  0.02    0.01  0.0424 -0.442  2021… 317504…
 4  -3.57  0.00385   1.58e-8 3.55e-4  0.02    0.01  0.0923 -0.416  2021… 317503…
 5  -0.907 0.00381   2.72e-8 3.64e-1  0.32    0.16  0.223   0.597  2021… 317510…
 6   1.10  0.00383   1.31e-8 2.72e-1  0.24    0.12 -0.0439 -0.0138 2021… 317403…
 7   0.428 0.00383   3.30e-8 6.69e-1  0.66    0.33 -0.116   0.0452 2021… 317505…
 8  -4.23  0.00386   2.36e-8 2.36e-5  0.02    0.01 -0.163   0.289  2021… 317504…
 9  -1.09  0.00381   2.00e-8 2.78e-1  0.3     0.15  0.161  -0.248  2021… 317107…
10  -3.19  0.00384   1.85e-8 1.40e-3  0.02    0.01  0.112   0.443  2021… 317503…
# … with 251 more rows, 10 more variables: city_region <chr>,
#   subdistrict <chr>, district <chr>, not_vaccinated <dbl>,
#   target_vaccination <dbl>, total_population <dbl>, vaccination_rate <dbl>,
#   geometry <MULTIPOLYGON [m]>, nb <nb>, wt <list>, and abbreviated variable
#   names ¹​p_folded_sim, ²​skewness, ³​kurtosis, ⁴​village_code

[[3]]
Simple feature collection with 261 features and 19 fields
Geometry type: MULTIPOLYGON
Dimension:     XY
Bounding box:  xmin: -3644275 ymin: 663887.8 xmax: -3606237 ymax: 701380.1
Projected CRS: DGN95 / Indonesia TM-3 zone 54.1
# A tibble: 261 × 20
   gi_star    e_gi    var_gi p_value p_sim p_fol…¹ skewn…² kurto…³ date  villa…⁴
     <dbl>   <dbl>     <dbl>   <dbl> <dbl>   <dbl>   <dbl>   <dbl> <fct> <chr>  
 1   2.20  0.00384   2.96e-9 2.75e-2  0.04    0.02 -0.122  -0.148  2021… 317205…
 2  -0.844 0.00383   6.21e-9 3.99e-1  0.42    0.21  0.0902 -0.331  2021… 317304…
 3  -3.31  0.00384   4.92e-9 9.24e-4  0.02    0.01  0.0238 -0.320  2021… 317504…
 4  -3.45  0.00384   3.28e-9 5.55e-4  0.02    0.01  0.127  -0.572  2021… 317503…
 5   1.25  0.00382   5.13e-9 2.11e-1  0.24    0.12  0.670   0.874  2021… 317510…
 6  -1.13  0.00383   3.05e-9 2.60e-1  0.34    0.17  0.170   0.379  2021… 317403…
 7   1.03  0.00383   6.16e-9 3.05e-1  0.32    0.16 -0.0918  0.802  2021… 317505…
 8  -3.16  0.00384   4.85e-9 1.58e-3  0.02    0.01 -0.241   0.0292 2021… 317504…
 9  -3.09  0.00382   3.89e-9 2.01e-3  0.02    0.01  0.460   0.0676 2021… 317107…
10  -3.54  0.00383   3.37e-9 4.00e-4  0.02    0.01  0.501   1.06   2021… 317503…
# … with 251 more rows, 10 more variables: city_region <chr>,
#   subdistrict <chr>, district <chr>, not_vaccinated <dbl>,
#   target_vaccination <dbl>, total_population <dbl>, vaccination_rate <dbl>,
#   geometry <MULTIPOLYGON [m]>, nb <nb>, wt <list>, and abbreviated variable
#   names ¹​p_folded_sim, ²​skewness, ³​kurtosis, ⁴​village_code

[[4]]
Simple feature collection with 261 features and 19 fields
Geometry type: MULTIPOLYGON
Dimension:     XY
Bounding box:  xmin: -3644275 ymin: 663887.8 xmax: -3606237 ymax: 701380.1
Projected CRS: DGN95 / Indonesia TM-3 zone 54.1
# A tibble: 261 × 20
   gi_star    e_gi   var_gi p_value p_sim p_fol…¹ skewness kurto…² date  villa…³
     <dbl>   <dbl>    <dbl>   <dbl> <dbl>   <dbl>    <dbl>   <dbl> <fct> <chr>  
 1  0.699  0.00384  1.60e-9 4.85e-1  0.52    0.26 -0.321   -0.518  2021… 317205…
 2 -1.51   0.00383  3.29e-9 1.32e-1  0.14    0.07 -0.0907  -0.591  2021… 317304…
 3 -3.12   0.00384  2.72e-9 1.78e-3  0.02    0.01 -0.309   -0.552  2021… 317504…
 4 -2.98   0.00383  1.86e-9 2.89e-3  0.02    0.01  0.00600 -0.504  2021… 317503…
 5  1.23   0.00382  2.73e-9 2.20e-1  0.24    0.12  0.141    0.0867 2021… 317510…
 6  0.0615 0.00383  1.74e-9 9.51e-1  0.98    0.49  0.0352  -0.499  2021… 317403…
 7  1.76   0.00383  2.90e-9 7.77e-2  0.08    0.04 -0.302    0.461  2021… 317505…
 8 -3.63   0.00384  2.42e-9 2.82e-4  0.02    0.01 -0.195    0.0440 2021… 317504…
 9 -1.60   0.00383  2.53e-9 1.11e-1  0.12    0.06  0.0791  -0.702  2021… 317107…
10 -2.85   0.00383  1.89e-9 4.35e-3  0.02    0.01  0.599    0.431  2021… 317503…
# … with 251 more rows, 10 more variables: city_region <chr>,
#   subdistrict <chr>, district <chr>, not_vaccinated <dbl>,
#   target_vaccination <dbl>, total_population <dbl>, vaccination_rate <dbl>,
#   geometry <MULTIPOLYGON [m]>, nb <nb>, wt <list>, and abbreviated variable
#   names ¹​p_folded_sim, ²​kurtosis, ³​village_code

[[5]]
Simple feature collection with 261 features and 19 fields
Geometry type: MULTIPOLYGON
Dimension:     XY
Bounding box:  xmin: -3644275 ymin: 663887.8 xmax: -3606237 ymax: 701380.1
Projected CRS: DGN95 / Indonesia TM-3 zone 54.1
# A tibble: 261 × 20
   gi_star    e_gi    var_gi p_value p_sim p_fol…¹ skewn…² kurto…³ date  villa…⁴
     <dbl>   <dbl>     <dbl>   <dbl> <dbl>   <dbl>   <dbl>   <dbl> <fct> <chr>  
 1  -0.242 0.00384   1.32e-9 8.09e-1  0.76    0.38 -0.247   -0.389 2021… 317205…
 2  -1.59  0.00382   2.46e-9 1.12e-1  0.18    0.09 -0.0911  -0.711 2021… 317304…
 3  -3.33  0.00384   2.08e-9 8.69e-4  0.02    0.01 -0.348   -0.487 2021… 317504…
 4  -2.37  0.00383   1.43e-9 1.79e-2  0.06    0.03 -0.195   -0.401 2021… 317503…
 5   1.45  0.00383   2.04e-9 1.46e-1  0.16    0.08 -0.0260  -0.224 2021… 317510…
 6   0.450 0.00383   1.24e-9 6.52e-1  0.78    0.39  0.113   -0.658 2021… 317403…
 7   2.62  0.00383   2.09e-9 8.74e-3  0.02    0.01 -0.417    0.145 2021… 317505…
 8  -3.88  0.00384   1.87e-9 1.03e-4  0.02    0.01 -0.235    0.260 2021… 317504…
 9  -2.25  0.00383   1.94e-9 2.45e-2  0.02    0.01 -0.0785  -0.570 2021… 317107…
10  -2.42  0.00383   1.36e-9 1.56e-2  0.04    0.02  0.474    0.134 2021… 317503…
# … with 251 more rows, 10 more variables: city_region <chr>,
#   subdistrict <chr>, district <chr>, not_vaccinated <dbl>,
#   target_vaccination <dbl>, total_population <dbl>, vaccination_rate <dbl>,
#   geometry <MULTIPOLYGON [m]>, nb <nb>, wt <list>, and abbreviated variable
#   names ¹​p_folded_sim, ²​skewness, ³​kurtosis, ⁴​village_code

[[6]]
Simple feature collection with 261 features and 19 fields
Geometry type: MULTIPOLYGON
Dimension:     XY
Bounding box:  xmin: -3644275 ymin: 663887.8 xmax: -3606237 ymax: 701380.1
Projected CRS: DGN95 / Indonesia TM-3 zone 54.1
# A tibble: 261 × 20
   gi_star    e_gi   var_gi  p_value p_sim p_fol…¹ skewn…² kurto…³ date  villa…⁴
     <dbl>   <dbl>    <dbl>    <dbl> <dbl>   <dbl>   <dbl>   <dbl> <fct> <chr>  
 1  -0.544 0.00384 1.02e- 9 0.586     0.54    0.27 -0.239  -0.207  2021… 317205…
 2  -1.36  0.00382 1.85e- 9 0.173     0.2     0.1  -0.148  -0.601  2021… 317304…
 3  -2.59  0.00384 1.73e- 9 0.00953   0.04    0.02 -0.359  -0.356  2021… 317504…
 4  -2.45  0.00383 1.10e- 9 0.0144    0.02    0.01 -0.189  -0.435  2021… 317503…
 5   1.35  0.00383 1.58e- 9 0.177     0.2     0.1  -0.0778 -0.225  2021… 317510…
 6   0.538 0.00383 9.49e-10 0.591     0.68    0.34  0.166  -0.627  2021… 317403…
 7   2.64  0.00383 1.66e- 9 0.00834   0.02    0.01 -0.562   0.263  2021… 317505…
 8  -3.35  0.00384 1.47e- 9 0.000797  0.04    0.02 -0.360   0.505  2021… 317504…
 9  -2.99  0.00383 1.40e- 9 0.00279   0.02    0.01  0.0304 -0.514  2021… 317107…
10  -2.39  0.00383 1.07e- 9 0.0169    0.02    0.01  0.244  -0.0401 2021… 317503…
# … with 251 more rows, 10 more variables: city_region <chr>,
#   subdistrict <chr>, district <chr>, not_vaccinated <dbl>,
#   target_vaccination <dbl>, total_population <dbl>, vaccination_rate <dbl>,
#   geometry <MULTIPOLYGON [m]>, nb <nb>, wt <list>, and abbreviated variable
#   names ¹​p_folded_sim, ²​skewness, ³​kurtosis, ⁴​village_code

[[7]]
Simple feature collection with 261 features and 19 fields
Geometry type: MULTIPOLYGON
Dimension:     XY
Bounding box:  xmin: -3644275 ymin: 663887.8 xmax: -3606237 ymax: 701380.1
Projected CRS: DGN95 / Indonesia TM-3 zone 54.1
# A tibble: 261 × 20
   gi_star    e_gi   var_gi p_value p_sim p_fol…¹ skewness kurto…² date  villa…³
     <dbl>   <dbl>    <dbl>   <dbl> <dbl>   <dbl>    <dbl>   <dbl> <fct> <chr>  
 1  -0.426 0.00384 8.19e-10 6.70e-1  0.58    0.29 -0.357    0.180  2022… 317205…
 2  -1.12  0.00382 1.40e- 9 2.64e-1  0.38    0.19 -0.154   -0.500  2022… 317304…
 3  -2.48  0.00383 1.30e- 9 1.33e-2  0.04    0.02 -0.279   -0.319  2022… 317504…
 4  -2.04  0.00383 8.47e-10 4.10e-2  0.08    0.04 -0.163   -0.336  2022… 317503…
 5   1.28  0.00383 1.18e- 9 1.99e-1  0.22    0.11 -0.00961 -0.293  2022… 317510…
 6   0.324 0.00383 7.37e-10 7.46e-1  0.84    0.42  0.199   -0.527  2022… 317403…
 7   2.78  0.00383 1.31e- 9 5.48e-3  0.02    0.01 -0.518    0.345  2022… 317505…
 8  -3.13  0.00384 1.18e- 9 1.73e-3  0.04    0.02 -0.455    0.590  2022… 317504…
 9  -3.69  0.00383 9.98e-10 2.20e-4  0.02    0.01  0.0668  -0.376  2022… 317107…
10  -2.04  0.00383 7.96e-10 4.11e-2  0.06    0.03  0.161   -0.0298 2022… 317503…
# … with 251 more rows, 10 more variables: city_region <chr>,
#   subdistrict <chr>, district <chr>, not_vaccinated <dbl>,
#   target_vaccination <dbl>, total_population <dbl>, vaccination_rate <dbl>,
#   geometry <MULTIPOLYGON [m]>, nb <nb>, wt <list>, and abbreviated variable
#   names ¹​p_folded_sim, ²​kurtosis, ³​village_code

[[8]]
Simple feature collection with 261 features and 19 fields
Geometry type: MULTIPOLYGON
Dimension:     XY
Bounding box:  xmin: -3644275 ymin: 663887.8 xmax: -3606237 ymax: 701380.1
Projected CRS: DGN95 / Indonesia TM-3 zone 54.1
# A tibble: 261 × 20
   gi_star    e_gi   var_gi  p_value p_sim p_fol…¹ skewn…² kurto…³ date  villa…⁴
     <dbl>   <dbl>    <dbl>    <dbl> <dbl>   <dbl>   <dbl>   <dbl> <fct> <chr>  
 1  -0.315 0.00383 6.92e-10  7.53e-1  0.74    0.37 -0.361   0.221  2022… 317205…
 2  -1.09  0.00383 1.21e- 9  2.76e-1  0.34    0.17 -0.209  -0.409  2022… 317304…
 3  -2.37  0.00383 1.08e- 9  1.79e-2  0.04    0.02 -0.170  -0.274  2022… 317504…
 4  -1.88  0.00383 7.11e-10  5.96e-2  0.08    0.04 -0.133  -0.285  2022… 317503…
 5   1.41  0.00383 9.96e-10  1.58e-1  0.16    0.08  0.0296 -0.267  2022… 317510…
 6   0.155 0.00383 6.31e-10  8.77e-1  0.94    0.47  0.213  -0.348  2022… 317403…
 7   2.85  0.00383 1.11e- 9  4.36e-3  0.02    0.01 -0.520   0.372  2022… 317505…
 8  -2.94  0.00384 1.01e- 9  3.31e-3  0.04    0.02 -0.446   0.606  2022… 317504…
 9  -4.09  0.00383 8.08e-10  4.27e-5  0.02    0.01  0.0875 -0.389  2022… 317107…
10  -1.85  0.00383 6.76e-10  6.38e-2  0.1     0.05  0.113  -0.0808 2022… 317503…
# … with 251 more rows, 10 more variables: city_region <chr>,
#   subdistrict <chr>, district <chr>, not_vaccinated <dbl>,
#   target_vaccination <dbl>, total_population <dbl>, vaccination_rate <dbl>,
#   geometry <MULTIPOLYGON [m]>, nb <nb>, wt <list>, and abbreviated variable
#   names ¹​p_folded_sim, ²​skewness, ³​kurtosis, ⁴​village_code

[[9]]
Simple feature collection with 261 features and 19 fields
Geometry type: MULTIPOLYGON
Dimension:     XY
Bounding box:  xmin: -3644275 ymin: 663887.8 xmax: -3606237 ymax: 701380.1
Projected CRS: DGN95 / Indonesia TM-3 zone 54.1
# A tibble: 261 × 20
   gi_star    e_gi   var_gi  p_value p_sim p_fol…¹ skewn…² kurto…³ date  villa…⁴
     <dbl>   <dbl>    <dbl>    <dbl> <dbl>   <dbl>   <dbl>   <dbl> <fct> <chr>  
 1  -0.291 0.00383 6.74e-10  7.71e-1  0.76    0.38 -0.357   0.231  2022… 317205…
 2  -1.11  0.00383 1.15e- 9  2.69e-1  0.36    0.18 -0.176  -0.411  2022… 317304…
 3  -2.36  0.00383 1.04e- 9  1.85e-2  0.04    0.02 -0.129  -0.351  2022… 317504…
 4  -1.87  0.00383 6.90e-10  6.17e-2  0.08    0.04 -0.142  -0.296  2022… 317503…
 5   1.40  0.00383 9.49e-10  1.61e-1  0.16    0.08  0.0775 -0.283  2022… 317510…
 6   0.156 0.00383 6.08e-10  8.76e-1  0.94    0.47  0.240  -0.288  2022… 317403…
 7   2.87  0.00383 1.09e- 9  4.12e-3  0.02    0.01 -0.497   0.267  2022… 317505…
 8  -2.95  0.00384 9.70e-10  3.13e-3  0.04    0.02 -0.434   0.568  2022… 317504…
 9  -4.15  0.00383 7.79e-10  3.35e-5  0.02    0.01  0.0897 -0.370  2022… 317107…
10  -1.85  0.00383 6.56e-10  6.45e-2  0.12    0.06  0.127  -0.0983 2022… 317503…
# … with 251 more rows, 10 more variables: city_region <chr>,
#   subdistrict <chr>, district <chr>, not_vaccinated <dbl>,
#   target_vaccination <dbl>, total_population <dbl>, vaccination_rate <dbl>,
#   geometry <MULTIPOLYGON [m]>, nb <nb>, wt <list>, and abbreviated variable
#   names ¹​p_folded_sim, ²​skewness, ³​kurtosis, ⁴​village_code

[[10]]
Simple feature collection with 261 features and 19 fields
Geometry type: MULTIPOLYGON
Dimension:     XY
Bounding box:  xmin: -3644275 ymin: 663887.8 xmax: -3606237 ymax: 701380.1
Projected CRS: DGN95 / Indonesia TM-3 zone 54.1
# A tibble: 261 × 20
   gi_star    e_gi   var_gi  p_value p_sim p_fol…¹ skewn…² kurto…³ date  villa…⁴
     <dbl>   <dbl>    <dbl>    <dbl> <dbl>   <dbl>   <dbl>   <dbl> <fct> <chr>  
 1 -0.159  0.00383 6.48e-10  8.74e-1  0.86    0.43 -0.390   0.266  2022… 317205…
 2 -1.06   0.00383 1.06e- 9  2.89e-1  0.38    0.19 -0.168  -0.460  2022… 317304…
 3 -2.39   0.00383 9.65e-10  1.66e-2  0.04    0.02 -0.0819 -0.428  2022… 317504…
 4 -1.90   0.00383 6.46e-10  5.70e-2  0.08    0.04 -0.150  -0.255  2022… 317503…
 5  1.45   0.00383 8.80e-10  1.47e-1  0.16    0.08  0.121  -0.271  2022… 317510…
 6  0.0655 0.00383 5.80e-10  9.48e-1  0.98    0.49  0.261  -0.213  2022… 317403…
 7  2.94   0.00383 1.03e- 9  3.27e-3  0.02    0.01 -0.454   0.191  2022… 317505…
 8 -2.94   0.00384 9.28e-10  3.27e-3  0.04    0.02 -0.434   0.592  2022… 317504…
 9 -4.26   0.00383 7.25e-10  2.04e-5  0.02    0.01  0.0665 -0.365  2022… 317107…
10 -1.87   0.00383 6.31e-10  6.19e-2  0.12    0.06  0.120  -0.0169 2022… 317503…
# … with 251 more rows, 10 more variables: city_region <chr>,
#   subdistrict <chr>, district <chr>, not_vaccinated <dbl>,
#   target_vaccination <dbl>, total_population <dbl>, vaccination_rate <dbl>,
#   geometry <MULTIPOLYGON [m]>, nb <nb>, wt <list>, and abbreviated variable
#   names ¹​p_folded_sim, ²​skewness, ³​kurtosis, ⁴​village_code

[[11]]
Simple feature collection with 261 features and 19 fields
Geometry type: MULTIPOLYGON
Dimension:     XY
Bounding box:  xmin: -3644275 ymin: 663887.8 xmax: -3606237 ymax: 701380.1
Projected CRS: DGN95 / Indonesia TM-3 zone 54.1
# A tibble: 261 × 20
   gi_star    e_gi   var_gi  p_value p_sim p_fol…¹ skewn…² kurto…³ date  villa…⁴
     <dbl>   <dbl>    <dbl>    <dbl> <dbl>   <dbl>   <dbl>   <dbl> <fct> <chr>  
 1 -0.154  0.00383 6.31e-10  8.78e-1  0.88    0.44 -0.427   0.284  2022… 317205…
 2 -1.04   0.00383 1.03e- 9  2.98e-1  0.38    0.19 -0.179  -0.444  2022… 317304…
 3 -2.44   0.00383 9.37e-10  1.45e-2  0.04    0.02 -0.0930 -0.374  2022… 317504…
 4 -1.89   0.00383 6.26e-10  5.88e-2  0.08    0.04 -0.158  -0.245  2022… 317503…
 5  1.55   0.00383 8.56e-10  1.20e-1  0.12    0.06  0.110  -0.308  2022… 317510…
 6  0.0237 0.00383 5.69e-10  9.81e-1  1       0.5   0.285  -0.118  2022… 317403…
 7  2.90   0.00383 1.02e- 9  3.71e-3  0.02    0.01 -0.431   0.0897 2022… 317505…
 8 -2.98   0.00384 8.99e-10  2.90e-3  0.04    0.02 -0.424   0.538  2022… 317504…
 9 -4.36   0.00383 7.04e-10  1.32e-5  0.02    0.01  0.0533 -0.368  2022… 317107…
10 -1.92   0.00383 6.15e-10  5.43e-2  0.12    0.06  0.0850  0.0392 2022… 317503…
# … with 251 more rows, 10 more variables: city_region <chr>,
#   subdistrict <chr>, district <chr>, not_vaccinated <dbl>,
#   target_vaccination <dbl>, total_population <dbl>, vaccination_rate <dbl>,
#   geometry <MULTIPOLYGON [m]>, nb <nb>, wt <list>, and abbreviated variable
#   names ¹​p_folded_sim, ²​skewness, ³​kurtosis, ⁴​village_code
…
